Detect outliers — detect_outliers • pddcs
…
    Examples

# Fetch source data
df <- fetch_indicator('SH.MED.PHYS.ZS', source = 'who')

# Detect outliers (alpha = 0.05)
df2 <- detect_outliers(df)
df2[df2$outlier,]

#> # A tibble: 70 × 8
#>    iso3c  year indicator      value note                  source outlier p_value
#>    <chr> <dbl> <chr>          <dbl> <chr>                 <chr>  <lgl>     <dbl>
#>  1 ALB    2018 SH.MED.PHYS.ZS 2.16  Plausible bound is 2… who    TRUE      1.00 
#>  2 ARM    2017 SH.MED.PHYS.ZS 4.40  Plausible bound is 4… who    TRUE      1.00 
#>  3 BDI    2017 SH.MED.PHYS.ZS 0.100 Plausible bound is 1… who    TRUE      0.984
#>  4 BEL    2019 SH.MED.PHYS.ZS 5.96  Plausible bound is 5… who    TRUE      1.00 
#>  5 BGD    2019 SH.MED.PHYS.ZS 0.637 Plausible bound is 6… who    TRUE      0.981
#>  6 BGR    2018 SH.MED.PHYS.ZS 4.21  Plausible bound is 4… who    TRUE      0.984
#>  7 BRA    2019 SH.MED.PHYS.ZS 2.31  Plausible bound is 2… who    TRUE      0.990
#>  8 CHE    1996 SH.MED.PHYS.ZS 3.23  Plausible bound is 3… who    TRUE      0.999
#>  9 CHN    2016 SH.MED.PHYS.ZS 1.86  Plausible bound is 1… who    TRUE      0.976
#> 10 CHN    2017 SH.MED.PHYS.ZS 1.98  Plausible bound is 1… who    TRUE      0.993
#> # … with 60 more rows
…
