Outlier detection • pddcs
…
The output of detect_outliers() is the same data frame we used as input, but with two additional columns; outlier is a boolean that indicates whether the z-score and corresponding p-value was above the given significance threshold, while p_value is the p-value of the calculation.

To get an overview of the potential outliers we can simply filter by the outlier column.

df2[df2$outlier, ]
#> # A tibble: 70 × 8
#>    iso3c  year indicator      value note                  source outlier p_value
#>    <chr> <dbl> <chr>          <dbl> <chr>                 <chr>  <lgl>     <dbl>
#>  1 ALB    2018 SH.MED.PHYS.ZS 2.16  Plausible bound is 2… who    TRUE      1.00 
#>  2 ARM    2017 SH.MED.PHYS.ZS 4.40  Plausible bound is 4… who    TRUE      1.00 
#>  3 BDI    2017 SH.MED.PHYS.ZS 0.100 Plausible bound is 1… who    TRUE      0.984
#>  4 BEL    2019 SH.MED.PHYS.ZS 5.96  Plausible bound is 5… who    TRUE      1.00 
#>  5 BGD    2019 SH.MED.PHYS.ZS 0.637 Plausible bound is 6… who    TRUE      0.981
#>  6 BGR    2018 SH.MED.PHYS.ZS 4.21  Plausible bound is 4… who    TRUE      0.984
#>  7 BRA    2019 SH.MED.PHYS.ZS 2.31  Plausible bound is 2… who    TRUE      0.990
#>  8 CHE    1996 SH.MED.PHYS.ZS 3.23  Plausible bound is 3… who    TRUE      0.999
#>  9 CHN    2016 SH.MED.PHYS.ZS 1.86  Plausible bound is 1… who    TRUE      0.976
#> 10 CHN    2017 SH.MED.PHYS.ZS 1.98  Plausible bound is 1… who    TRUE      0.993
#> # … with 60 more rows
…
The output of compare_datasets() adds seven additional columns to the source dataset. See the documentation (?compare_datasets) for details on each column.

Comparison is done by merging the two datasets (left join on new), calculating the absolute difference between the two value columns, and then running outlier detection on the diff column. You should look for both large differences in values (diff) and large p-values (p_value) to identify outliers or other possible unwanted changes in the data.

In the case where a few values for a specific country are substantially different from the current dataset in WDI they will be identified as outliers with large p-values. On the other hand it might be the case that most or all values for a specific country have changed. In that case it is unlikely to be any outliers, but changes can be found by inspecting the diff and n_diff columns.

A few examples are given below.

For Australia four values are different then the observations in WDI, but only two of the differences are identified as outliers.

cols <- c("iso3c", "year", "value", "current_value", "diff", "outlier", "n_diff", "n_outlier")
res[res$iso3c == "AUS", ][cols]
#> # A tibble: 21 × 8
#>    iso3c  year  value current_value   diff outlier n_diff n_outlier
#>    <chr> <dbl>  <dbl>         <dbl>  <dbl> <lgl>    <int>     <int>
#>  1 AUS    1996  0.599         10.4   9.76  TRUE         4         2
#>  2 AUS    2000 10.1           NA    NA     FALSE        4         2
#>  3 AUS    2001 10.6            9.75  0.847 FALSE        4         2
#>  4 AUS    2002  9.99          NA    NA     FALSE        4         2
#>  5 AUS    2003  9.99          NA    NA     FALSE        4         2
#>  6 AUS    2004 10.2           NA    NA     FALSE        4         2
#>  7 AUS    2005  9.76           9.76  0     FALSE        4         2
#>  8 AUS    2006  0.596         10.8  10.2   TRUE         4         2
#>  9 AUS    2007 10.2           10.2   0     FALSE        4         2
#> 10 AUS    2008 10.3           10.3   0     FALSE        4         2
#> # … with 11 more rows
…
Another interesting case is Israel. There are no outliers, but there are minor differences between WDI and WHO for 18 of 25 observations. Since all the differences are quite small everything might be okay. Yet it could still be worth investigating why the value for so many years has changed.

res[res$iso3c == "ISR", ][cols]
#> # A tibble: 25 × 8
#>    iso3c  year value current_value  diff outlier n_diff n_outlier
#>    <chr> <dbl> <dbl>         <dbl> <dbl> <lgl>    <int>     <int>
#>  1 ISR    1995  8.23          8.23  0    FALSE       18         0
#>  2 ISR    1996  5.56          5.56  0    FALSE       18         0
#>  3 ISR    1997  5.50          5.50  0    FALSE       18         0
#>  4 ISR    1998  5.60          5.60  0    FALSE       18         0
#>  5 ISR    1999  5.71          5.71  0    FALSE       18         0
#>  6 ISR    2000  7.76          6.02  1.73 FALSE       18         0
#>  7 ISR    2001  7.79          6.12  1.68 FALSE       18         0
#>  8 ISR    2002  7.68          6.05  1.63 FALSE       18         0
#>  9 ISR    2003  7.34          5.92  1.42 FALSE       18         0
#> 10 ISR    2004  7.10          5.78  1.32 FALSE       18         0
#> # … with 15 more rows
…
